[
    {
      "petName": "Spot",
      "petOwner": "Constance Smith",
      "aptDate": "2017-07-24 08:30",
      "aptNotes": "This German Shepherd is having some back pain"
    },
    {
      "petName": "Goldie",
      "petOwner": "Barot Bellingham",
      "aptDate": "2017-07-22 15:50",
      "aptNotes": "This Goldfish has some weird spots in the belly"
    },
    {
      "petName": "Mitten",
      "petOwner": "Hillary Goldwyn",
      "aptDate": "2017-07-21 9:15",
      "aptNotes": "Cat has excessive hairballs"
    },
    {
      "petName": "Buffy",
      "petOwner": "Hassum Harrod",
      "aptDate": "2017-07-20 15:30",
      "aptNotes": "This Chihuahua has not eaten for three days and is lethargic"
    },
    {
      "petName": "Null",
      "petOwner": "Desire Mpondo",
      "aptDate": "2017-07-24 08:30",
      "aptNotes": "This German Shepherd is having some back pain and bones wrach"
    },
    {
      "petName": "Bobby dog",
      "petOwner": "Barot Bull",
      "aptDate": "2017-07-22 15:50",
      "aptNotes": "This Goldfish has some weird spots in the belly"
    },
    {
      "petName": "Kitty",
      "petOwner": "Pitt Bull",
      "aptDate": "2017-07-21 9:15",
      "aptNotes": "Cat has excessive hairballs and vomitting"
    },
    {
      "petName": "Daffy Duck",
      "petOwner": "Loney Toons company",
      "aptDate": "2017-07-20 15:30",
      "aptNotes": "This Duck has not eaten for three days and is lethargic"
    }
  ]